Take-home Exercise 3: Armed Conflict in Myanmar – IS415-GAA
…
Rows: 560 Columns: 10
── Column specification ────────────────────────────────────────────────────────
Delimiter: ","
chr  (2): state, district
dbl  (7): lf, lf_employed, lf_unemployed, lf_outside, p_rate, u_rate, ep_ratio
date (1): date

ℹ Use `spec()` to retrieve the full column specification for this data.
ℹ Specify the column types or set `show_col_types = FALSE` to quiet this message.

Now let’s look at the possible variables that we can use from each of these datasets

crime

# A tibble: 19,152 × 6
   state    district category type           date       crimes
   <chr>    <chr>    <chr>    <chr>          <date>      <dbl>
 1 Malaysia All      assault  all            2016-01-01  22327
 2 Malaysia All      assault  all            2017-01-01  21366
 3 Malaysia All      assault  all            2018-01-01  16902
 4 Malaysia All      assault  all            2019-01-01  16489
 5 Malaysia All      assault  all            2020-01-01  13279
 6 Malaysia All      assault  all            2021-01-01  11495
 7 Malaysia All      assault  all            2022-01-01  10348
 8 Malaysia All      assault  all            2023-01-01  10453
 9 Malaysia All      assault  causing_injury 2016-01-01   5531
10 Malaysia All      assault  causing_injury 2017-01-01   5024
# ℹ 19,142 more rows

From here we can identify some of the variables that we can use, that the user can interact with district, category, type, date, crimes

income

# A tibble: 318 × 4
   state district    date        gini
   <chr> <chr>       <date>     <dbl>
 1 Johor Batu Pahat  2019-01-01 0.295
 2 Johor Batu Pahat  2022-01-01 0.338
 3 Johor Johor Bahru 2019-01-01 0.388
 4 Johor Johor Bahru 2022-01-01 0.359
 5 Johor Kluang      2019-01-01 0.333
 6 Johor Kluang      2022-01-01 0.354
 7 Johor Kota Tinggi 2019-01-01 0.361
 8 Johor Kota Tinggi 2022-01-01 0.343
 9 Johor Kulai       2019-01-01 0.324
10 Johor Kulai       2022-01-01 0.337
# ℹ 308 more rows

Likewise for income we have district, date, gini

labour

# A tibble: 560 × 10
   state district   date          lf lf_employed lf_unemployed lf_outside p_rate
   <chr> <chr>      <date>     <dbl>       <dbl>         <dbl>      <dbl>  <dbl>
 1 Johor Batu Pahat 2019-01-01  214.        210.           3.7       90.4   70.3
 2 Johor Batu Pahat 2020-01-01  219.        214.           4.7       92.2   70.4
 3 Johor Batu Pahat 2021-01-01  216         211            5         97.1   69  
 4 Johor Batu Pahat 2022-01-01  221.        217.           4         94.6   70  
 5 Johor Johor Bah… 2019-01-01  792.        768.          24.6      294.    73  
 6 Johor Johor Bah… 2020-01-01  804.        771.          32.5      297.    73  
 7 Johor Johor Bah… 2021-01-01  806.        772.          34.1      298.    73  
 8 Johor Johor Bah… 2022-01-01  830.        799           30.5      293.    73.9
 9 Johor Kluang     2019-01-01  166.        160.           5.6       66.9   71.3
10 Johor Kluang     2020-01-01  168.        161.           7.1       67.4   71.4
# ℹ 550 more rows
# ℹ 2 more variables: u_rate <dbl>, ep_ratio <dbl>
…
Finally we combine it with our msia_sf

msia <- left_join(msia_sf,crime_labour, by = c("ADM2_EN" = "district")) %>%
        select(1,6,16:24)

msia

Simple feature collection with 7024 features and 11 fields
Geometry type: MULTIPOLYGON
Dimension:     XY
Bounding box:  xmin: 184853.1 ymin: 94420.8 xmax: 2380932 ymax: 829136
Projected CRS: Kertau (RSO) / RSO Malaya (m)
# A tibble: 7,024 × 12
   ADM2_EN    ADM1_EN state.x category type     crimes  year    lf lf_unemployed
   <chr>      <chr>   <chr>   <chr>    <chr>     <dbl> <dbl> <dbl>         <dbl>
 1 Batu Pahat Johor   Johor   assault  causing…     41  2019  214.           3.7
 2 Batu Pahat Johor   Johor   assault  causing…     43  2020  219.           4.7
 3 Batu Pahat Johor   Johor   assault  causing…     22  2021  216            5  
 4 Batu Pahat Johor   Johor   assault  causing…     19  2022  221.           4  
 5 Batu Pahat Johor   Johor   assault  murder        3  2019  214.           3.7
 6 Batu Pahat Johor   Johor   assault  murder        3  2020  219.           4.7
 7 Batu Pahat Johor   Johor   assault  murder        0  2021  216            5  
 8 Batu Pahat Johor   Johor   assault  murder        3  2022  221.           4  
 9 Batu Pahat Johor   Johor   assault  rape         29  2019  214.           3.7
10 Batu Pahat Johor   Johor   assault  rape         16  2020  219.           4.7
# ℹ 7,014 more rows
# ℹ 3 more variables: p_rate <dbl>, u_rate <dbl>, geometry <MULTIPOLYGON [m]>
…
Let’s check for duplicates as well

duplicates <- msia %>%
    group_by(ADM2_EN, year, category, type, crimes, u_rate, p_rate) %>%
    filter(n() > 1)
if(nrow(duplicates) > 0) {
    print(duplicates)
}

Simple feature collection with 288 features and 11 fields
Geometry type: MULTIPOLYGON
Dimension:     XY
Bounding box:  xmin: 284518.8 ymin: 116154.7 xmax: 1641930 ymax: 656488.5
Projected CRS: Kertau (RSO) / RSO Malaya (m)
# A tibble: 288 × 12
# Groups:   ADM2_EN, year, category, type, crimes, u_rate, p_rate [125]
   ADM2_EN     ADM1_EN state.x category type    crimes  year    lf lf_unemployed
 * <chr>       <chr>   <chr>   <chr>    <chr>    <dbl> <dbl> <dbl>         <dbl>
 1 Johor Bahru Johor   Johor   assault  murder       3  2020  804.          32.5
 2 Johor Bahru Johor   Johor   assault  murder       3  2022  830.          30.5
 3 Johor Bahru Johor   Johor   assault  robber…      0  2019  792.          24.6
 4 Johor Bahru Johor   Johor   assault  robber…      0  2020  804.          32.5
 5 Johor Bahru Johor   Johor   assault  robber…      0  2022  830.          30.5
 6 Johor Bahru Johor   Johor   assault  robber…      0  2019  792.          24.6
 7 Johor Bahru Johor   Johor   assault  robber…      0  2020  804.          32.5
 8 Johor Bahru Johor   Johor   assault  robber…      0  2021  806.          34.1
 9 Johor Bahru Johor   Johor   assault  robber…      0  2022  830.          30.5
10 Johor Bahru Johor   Johor   property theft_…      5  2022  830.          30.5
# ℹ 278 more rows
# ℹ 3 more variables: p_rate <dbl>, u_rate <dbl>, geometry <MULTIPOLYGON [m]>
…
